[
  {
    "id": "1",
    "author": [
      "Turkmen"
    ],
    "topic": "Agencies",
    "image": "images/thumbs/best-email-marketing-agencies-in-london-with-successful-campaign-examples.jpg",
    "title": "Best Email Marketing Agencies in London",
    "para_title": "Best Email Marketing Agencies in London with Successful Campaign Examples",
    "description": "Email marketing is still one of the most effective marketing strategies although it seems an old way to promote your products compared to social media platforms.",
    "date": "10 March 2020",
    "lead": "Email marketing is still one of the most effective marketing strategies although it seems an old way to promote your products compared to social media platforms.",
    "para1": "We can define email marketing as the act of sending a commercial message, mostly every email sent to a potential or current customer.\n\nBy getting support to create powerful email marketing campaigns, you can definitely have much more positive results than just a normal commercial. Therefore, you should consider partnering with an email marketing agency so that you can send your message to your audience more effectively.",
    "para2_title": "Fifty Five and Five",
    "para2_blockquote": "We can improve your marketing\nWe help technology companies communicate more effectively, reach new audiences and drive leads.",
    "para2": "Fifty Five and Five is a full-service digital marketing agency. They can help you communicate with your audience more effectively by creating unique email marketing campaigns.\n\nThey can make your B2B email marketing campaigns shine with an amazing design, creative copy, and links that make readers want to click.What’s more, by using the most advanced analytical tools, they can draw insights on email performance and accordingly improve the service.",
    "para2_pic": "images/thumbs/email-marketing-agency-in-london-fifty-five-and-five.jpg",
    "para3_title": "The Good Marketer",
    "para3": "The Good Marketer is a digital marketing agency that focuses on driving more traffic, generating conversions and increasing sales for small-to-medium sized businesses.\n\nAs one of the best email marketing agencies in London, they can understand your aims and objectives by defining your target audience.\n\nThey can also enable you to become GDPR Certified by managing, maintaining and building your database in a compliant way."
  },
  {
    "id": "2",
    "author": [
      "Turkmen"
    ],
    "topic": "Adobe",
    "image": "images/thumbs/top-branding-agencies-in-chicago-with-excellent-strategies.jpg",
    "title": "Top Branding Adobe Agencies in Chicago",
    "para_title": "Top Branding Agencies in Chicago with Excellent Strategies",
    "description": "Building an excellent branding strategy is a critical need for businesses. Well, as it requires experience, you can start looking for professionals to create and generate your strategy.",
    "date": "4 March 2020",
    "lead": "Building an excellent branding strategy is a critical need for businesses. Well, as it requires experience, you can start looking for professionals to create and generate your strategy.",
    "para1": "Brand strategy is a process that affects your brand in a long-term period. If you want to achieve explicit goals, you can create a plan for the development of your brand. First of all, you need a well-defined brand strategy that has an impact on all aspects of your business. In this way, it is possible to meet customer needs in such a competitive environment.\nIt’s a journey that you have to start from the beginning. As long as you set your goals in the beginning, you can benefit from your strategic branding efforts.\nIt’s a journey that you have to start from the beginning. As long as you set your goals in the beginning, you can benefit from your strategic branding efforts.\nHowever, you can ask yourself questions, such as “What is the importance of building a powerful brand strategy?” and “What does a brand strategy mean for my business?”.\nIn order to get the right answers, you can work with a branding agency that has achieved great results with the best strategies.",
    "para2_title": "Blue Fountain Media",
    "para2_blockquote": "Blue Fountain Media is a digital marketing agency from New York City providing website development and online marketing strategies.",
    "para2": "Blue Fountain Media is a digital agency that creates human-centric experiences, crafting imagination and technology. In this way, they can help brands move from now to next.Besides leveraging data and the potential of digital, they also have expertise in website design and development, integrated marketing solutions and branding. By turning insights into vision, they aim to help brands find their way forward.They have over 15 years of experience in transforming brands. So, they can understand well how companies find success and build loyalty in digital. If you decide to partner with them, they can provide the strategic leadership that you need to discover and renew your identity correlated with today’s marketplace.",
    "para3_title": "Magnani",
    "para3": "Magnani is an experienced design and strategy firm that crafts customer and employee experiences. They have been making it easier for marketers to deliver the most effective and engaging brand experiences since 1985.\n\nBy embracing consumers as heroes in their stories, they can develop a deeper understanding and empathy. Thus, they aim to communicate a more compelling vision of how to solve the challenges.\n\nThey can help you unleash your brand’s potential — through every channel and customer interaction. And accordingly, they can create great ideas for your brand strategy."
  },
  {
    "id": "3",
    "author": [
      "Arica"
    ],
    "topic":"Computing",
    "image": "images/thumbs/apple-goes-behind-the-mac-for-international-womens-day.jpg",
    "title": "Apple Went ‘Behind the Mac’ for International Women’s Day",
    "description": "The brand pulls together found scenes of influential and successful women at their computers created by TBWA\\Media Arts Lab. The short film finds a variety of influential and successful women and adds the ways the company is celebrating International Women’s Day.",
    "para_title": "Apple Went ‘Behind the Mac’ for International Women’s Day",
    "date": "6 March 2020",
    "lead": "The brand pulls together found scenes of influential and successful women at their computers created by TBWA\\Media Arts Lab. The short film finds a variety of influential and successful women and adds the ways the company is celebrating International Women’s Day.",
    "para1": "Now it’s also shared a new moving Behind the Mac video that features seventeen highly accomplished women set to Beyonce’s “***Flawless Feat. Chimamanda Ngozi Adichie” which includes excerpts from the author’s TED Talk in 2017 which was about feminism.",
    "para2_title": "Video opens with Adichie’s lines",
    "para2_pic": "images/thumbs/apple-behind-the-mc-womens-day-ad.jpg",
    "para2_blockquote": "We teach girls to shrink themselves, to make themselves smaller. We say to girls, ‘You can have ambition, but not too much. You can aim to be successful, but not too successful otherwise you will threaten the man’",
    "para2": "It starts with a photo of Malala Yousafzai, the youngest Nobel laureate and a champion of girls’ education. The spot then posts photos of Ava Duvernay, Marie Kondo, Greta Gerwig, Diane von Furstenberg, Lady Gaga, Gloria Steinem, Megan Rapinoe and Shannon Boxx, Olivia Wilde, Alicia Keys, Elizabeth Banks, Tarana Burke, Lilly Singh, Audrey Gelman, Victoria Monet, DJ Switch and Black Mamba.",
    "para3_title": "",
    "para3": ""
  },
  {
    "id": "4",
    "author": [
      "Arica"
    ],
    "topic": "Marketing",
    "image": "images/thumbs/learn-to-redefine-beauty-with-dove’s-incredible-digital-marketing-strategies.jpg",
    "title": "Learn To Redefine Beauty With Dove’s Incredible Digital Marketing Strategies",
    "description": "With the efforts of the major corporations such as Dove, they are using integrated marketing communication to contribute versatile marketing campaigns. Dove has built up an ultimate integrated marketing campaign model that includes multiple elements of advertising, such as print, TVC, social media, digital, OOH, website and so on.",
    "para_title": "Learn To Redefine Beauty With Dove’s Incredible Digital Marketing Strategies",
    "date": "4 March 2020",
    "lead": "In between a fast-paced digital marketing landscape, how can marketing specialists find a way to influence purchasing decisions?",
    "para1": "With the efforts of the major corporations such as Dove, they are using integrated marketing communication to contribute versatile marketing campaigns. Dove has built up an ultimate integrated marketing campaign model that includes multiple elements of advertising, such as print, TVC, social media, digital, OOH, website and so on. Through this communication, Dove is able to create a consistent and a strong brand message that spreads awareness of their brand while expanding their consumer basis and their target audience.",
    "para2_title": "• Collaborate With the Unexpected, Such as Stock Photo Companies",
    "para2_pic": "images/thumbs/how-to-scale-your-digital-marketing-agency-to-the-next-level-840x400.jpg",
    "para2_blockquote": "Continuing its efforts on changing beauty standards in digital media, Dove released project #ShowUs that supports diversity and inclusivity at the same time.",
    "para2": "In partnership with digital photo company Girlgaze and Getty Images, Dove has collected about 5,000 images on GettyImages.com. The project features 179 women from 39 countries and the photographed talents include plus-size, trans, diverse women and women with skin conditions. The good part is, they were also shot by 116 female-identifying photographers within the Girlgaze network.",
    "para3_title": "• Expose Every Product Line When Appropriate",
    "para3": "To support paternity leave for dads everywhere, Dove Men+Care has released a new global campaign named “Dear Future Dads” on Father’s Day. Highlighting the importance of equal time spent with children for both parents, Dove created a new film called “Dear Future Dads.” The campaign film below features a group of dads who share advices and personal opinions for future dads on why they should spare time to grow their children as their wives do."
  }
]
